<svg id="noun_qr_1474709" xmlns="http://www.w3.org/2000/svg" width="76.75" height="76.75" viewBox="0 0 76.75 76.75">
  <path id="Path_3033" data-name="Path 3033" d="M35.727,0h7.309V3.654H39.381V7.309h-7.31V18.275H24.762V14.619h3.654V3.654h7.31Z" transform="translate(4.476)"/>
  <path id="Path_3034" data-name="Path 3034" d="M0,0V25.584H25.584V0ZM21.928,21.928H3.654V3.654H21.928Z"/>
  <path id="Path_3035" data-name="Path 3035" d="M43.334,0V25.584H68.917V0ZM65.261,21.928H46.988V3.654H65.262V21.928Z" transform="translate(7.833)"/>
  <rect id="Rectangle_6436" data-name="Rectangle 6436" width="10.965" height="10.965" transform="translate(7.309 7.309)"/>
  <rect id="Rectangle_6437" data-name="Rectangle 6437" width="10.965" height="10.965" transform="translate(58.475 7.309)"/>
  <rect id="Rectangle_6438" data-name="Rectangle 6438" width="3.654" height="3.654" transform="translate(40.203 10.965)"/>
  <path id="Path_3036" data-name="Path 3036" d="M38.262,12.381h3.654V27H38.262V19.69H34.608v3.656H30.952V16.037h7.31Z" transform="translate(5.595 2.238)"/>
  <path id="Path_3037" data-name="Path 3037" d="M25.881,18.571h3.654v3.656H33.19v3.654H29.536V33.19H33.19V29.536h3.656V25.881H40.5V36.846H33.19V40.5H29.536V36.846H25.881v-7.31h-7.31V25.881h7.31Z" transform="translate(3.357 3.357)"/>
  <rect id="Rectangle_6439" data-name="Rectangle 6439" width="7.309" height="3.656" transform="translate(7.309 29.238)"/>
  <path id="Path_3038" data-name="Path 3038" d="M40.238,24.762h7.31v3.654H43.894v3.654H40.238Z" transform="translate(7.274 4.476)"/>
  <rect id="Rectangle_6440" data-name="Rectangle 6440" width="3.656" height="3.656" transform="translate(58.475 29.238)"/>
  <path id="Path_3039" data-name="Path 3039" d="M0,27.857H7.309v3.654h3.656v3.656H7.309v3.654H3.654v-7.31H0Z" transform="translate(0 5.036)"/>
  <path id="Path_3040" data-name="Path 3040" d="M12.381,27.857H19.69v3.654H16.035v3.656H19.69v3.654H12.381Z" transform="translate(2.238 5.036)"/>
  <path id="Path_3041" data-name="Path 3041" d="M53.738,27.857h3.656v3.654h3.654V42.476H57.394V38.822H50.082v3.654H46.429V35.167h7.309Z" transform="translate(8.393 5.036)"/>
  <rect id="Rectangle_6441" data-name="Rectangle 6441" width="3.654" height="3.656" transform="translate(21.928 36.547)"/>
  <rect id="Rectangle_6442" data-name="Rectangle 6442" width="3.656" height="3.656" transform="translate(73.094 36.547)"/>
  <path id="Path_3042" data-name="Path 3042" d="M22.227,34.048h3.654v7.309h-7.31V37.7h3.656Z" transform="translate(3.357 6.155)"/>
  <rect id="Rectangle_6443" data-name="Rectangle 6443" width="3.656" height="3.654" transform="translate(43.857 40.203)"/>
  <rect id="Rectangle_6444" data-name="Rectangle 6444" width="3.654" height="3.656" transform="translate(0 43.857)"/>
  <rect id="Rectangle_6445" data-name="Rectangle 6445" width="3.654" height="3.656" transform="translate(7.309 43.857)"/>
  <path id="Path_3043" data-name="Path 3043" d="M32.071,37.143h7.31V40.8H35.727v7.31H32.071v7.309H28.416V48.108H24.762V40.8h3.654v3.654h3.654Z" transform="translate(4.476 6.714)"/>
  <rect id="Rectangle_6446" data-name="Rectangle 6446" width="3.656" height="3.656" transform="translate(47.512 43.857)"/>
  <rect id="Rectangle_6447" data-name="Rectangle 6447" width="3.656" height="3.656" transform="translate(73.094 43.857)"/>
  <rect id="Rectangle_6448" data-name="Rectangle 6448" width="3.656" height="7.309" transform="translate(43.857 47.512)"/>
  <rect id="Rectangle_6449" data-name="Rectangle 6449" width="3.656" height="7.309" transform="translate(62.131 47.512)"/>
  <rect id="Rectangle_6450" data-name="Rectangle 6450" width="3.654" height="3.654" transform="translate(69.441 47.512)"/>
  <path id="Path_3044" data-name="Path 3044" d="M49.786,43.333H53.44v3.656H57.1V54.3H68.059v3.654H53.44v7.309H49.786V57.952H46.132v3.656H42.476v3.653h3.656v3.656H27.857V65.261H38.822V57.952h3.654V46.989h7.31Z" transform="translate(5.036 7.833)"/>
  <path id="Path_3045" data-name="Path 3045" d="M0,43.333V68.917H25.584V43.333ZM21.928,65.261H3.654V46.989H21.928Z" transform="translate(0 7.833)"/>
  <rect id="Rectangle_6451" data-name="Rectangle 6451" width="3.654" height="3.654" transform="translate(40.203 54.822)"/>
  <rect id="Rectangle_6452" data-name="Rectangle 6452" width="7.308" height="3.654" transform="translate(65.787 54.822)"/>
  <rect id="Rectangle_6453" data-name="Rectangle 6453" width="10.965" height="10.965" transform="translate(7.309 58.475)"/>
  <rect id="Rectangle_6454" data-name="Rectangle 6454" width="3.656" height="3.656" transform="translate(73.094 58.475)"/>
  <path id="Path_3046" data-name="Path 3046" d="M24.762,52.619h3.654v3.654h3.654v3.656H24.762Z" transform="translate(4.476 9.512)"/>
  <rect id="Rectangle_6455" data-name="Rectangle 6455" width="7.309" height="3.654" transform="translate(36.547 62.131)"/>
  <rect id="Rectangle_6456" data-name="Rectangle 6456" width="3.654" height="3.654" transform="translate(65.787 69.441)"/>
  <rect id="Rectangle_6457" data-name="Rectangle 6457" width="3.656" height="3.654" transform="translate(73.094 69.441)"/>
  <rect id="Rectangle_6458" data-name="Rectangle 6458" width="3.656" height="3.656" transform="translate(58.475 73.094)"/>
</svg>
